id,name,model_id:id,group_id:id,perm_read,perm_write,perm_create,perm_unlink
access_slide_slide_all,slide.slide.all,model_slide_slide,,1,0,0,0
access_slide_slide_publisher,slide.slide.publisher,model_slide_slide,website.group_website_publisher,1,1,1,1
access_slide_slide_partner_all,slide.slide.partner.all,model_slide_slide_partner,,0,0,0,0
access_slide_slide_partner_system,slide.slide.partner.system,model_slide_slide_partner,website.group_website_publisher,1,1,1,1
access_slide_question_all,slide.question.all,model_slide_question,,1,0,0,0
access_slide_question_publisher,slide.question.publisher,model_slide_question,website.group_website_publisher,1,1,1,1
access_slide_answer_all,slide.answer.all,model_slide_answer,,1,0,0,0
access_slide_answer_publisher,slide.answer.publisher,model_slide_answer,website.group_website_publisher,1,1,1,1
access_slide_tag_all,slide.tag.all,model_slide_tag,,1,0,0,0
access_slide_tag_publisher,slide.tag.publisher,model_slide_tag,website.group_website_publisher,1,1,1,1
access_slide_channel_tag_all,slide.channel.tag.all,model_slide_channel_tag,,1,0,0,0
access_slide_channel_tag_user,slide.channel.tag.user,model_slide_channel_tag,website.group_website_publisher,1,1,1,1
access_slide_channel_tag_group_all,slide.channel.tag.group.all,model_slide_channel_tag_group,,1,0,0,0
access_slide_channel_tag_group_user,slide.channel.tag.group.user,model_slide_channel_tag_group,website.group_website_publisher,1,1,1,1
access_slide_channel_all,slide.channel.all,model_slide_channel,,1,0,0,0
access_slide_channel_publisher,slide.channel.publisher,model_slide_channel,website.group_website_publisher,1,1,1,1
access_slide_channel_partners_all,slide.channel.users.all,model_slide_channel_partner,,0,0,0,0
access_slide_channel_partners_system,slide.channel.users.system,model_slide_channel_partner,website.group_website_publisher,1,1,1,1
access_slide_category_all,slide.category.all,model_slide_category,,1,0,0,0
access_slide_category_publisher,slide.category.publisher,model_slide_category,website.group_website_publisher,1,1,1,1
access_slide_embed_all,slide.embed.all,model_slide_embed,,1,0,0,0
access_slide_embed_user,slide.embed.user,model_slide_embed,base.group_user,1,1,1,1
access_slide_slide_link_all,slide.slide.link.all,model_slide_slide_link,,1,0,0,0
access_slide_slide_link_publisher,slide.slide.link.publisher,model_slide_slide_link,website.group_website_publisher,1,1,1,1